<?xml version="1.0" encoding="utf-8"?>
<!-- Generator: Adobe Illustrator 25.0.0, SVG Export Plug-In . SVG Version: 6.00 Build 0)  -->
<svg version="1.1" id="Layer_1" xmlns="http://www.w3.org/2000/svg" xmlns:xlink="http://www.w3.org/1999/xlink" x="0px" y="0px"
	 viewBox="0 0 100 100" style="enable-background:new 0 0 100 100;" xml:space="preserve">
<style type="text/css">
	.st0{fill:#707070;}
</style>
<path class="st0" d="M49.6,3.2C23.8,3.2,2.8,24.2,2.8,50s21,46.8,46.8,46.8s46.8-21,46.8-46.8S75.4,3.2,49.6,3.2L49.6,3.2z
	 M49.6,93.5C25.5,93.5,6,74,6,50S25.5,6.4,49.6,6.4S93.1,26,93.1,50S73.6,93.5,49.6,93.5z"/>
<path class="st0" d="M50.3,49.3V21.8c0-0.9-0.7-1.6-1.6-1.6c-0.9,0-1.6,0.7-1.6,1.6V50c0,0.4,0.2,0.8,0.5,1.1l14.9,14.9
	c0.3,0.3,0.7,0.5,1.1,0.5c0.4,0,0.8-0.2,1.1-0.5c0.6-0.6,0.6-1.7,0-2.3L50.3,49.3z"/>
</svg>
